{
"verb": "add",
"values" : [
  {
  "uuid": "123",
  "objectClass" : "person",
  "cn": "Pieter Omtzigt",
  "sn": "Omtzigt",
  "dn": "sn=Omtzigt,ou=tweede,dc=rijksoverheid,dc=nl",
  "partij": "Onafhankelijk",
  "functie": "Elders"
  }
  ]
}
