{
"verb": "add",
"values" : [
  {
  "uuid": "124",
  "objectClass" : "person",
  "cn": "Wim-Lex",
  "sn": "van Oranje-Nassau",
  "dn": "sn=van Oranje,ou=tweede,dc=rijksoverheid,dc=nl",
  "functie": "Koning"
  }
  ]
}
